partea1/partea1.sim/sim_1/behav/xsim/tb_instr_dcd.vcd
$date
   Sun Nov  9 11:06:08 2025
$end
$version
  2022.1
$end
$timescale
  1ps
$end
$scope module tb_instr_dcd $end
$var reg 1 ! clk $end
$var reg 1 " rst_n $end
$var reg 1 # byte_sync $end
$var reg 8 $ data_in [7:0] $end
$var wire 8 % data_out [7:0] $end
$var wire 1 & read $end
$var wire 1 ' write $end
$var wire 6 ( addr [5:0] $end
$var reg 8 ) data_read [7:0] $end
$var wire 8 * data_write [7:0] $end
$scope module DUT $end
$var wire 1 + clk $end
$var wire 1 , rst_n $end
$var wire 1 - byte_sync $end
$var wire 8 . data_in [7:0] $end
$var wire 8 % data_out [7:0] $end
$var wire 1 & read $end
$var wire 1 ' write $end
$var wire 6 ( addr [5:0] $end
$var wire 8 / data_read [7:0] $end
$var wire 8 * data_write [7:0] $end
$var reg 2 0 current_state [1:0] $end
$var reg 2 1 next_state [1:0] $end
$var reg 8 2 data_in_reg [7:0] $end
$var reg 8 3 data_write_reg [7:0] $end
$var reg 8 4 data_out_reg [7:0] $end
$var reg 1 5 instr_rw_reg $end
$var reg 6 6 instr_addr_reg [5:0] $end
$upscope $end
$scope task reset_dut $end
$upscope $end
$scope task send_byte $end
$var reg 8 7 value [7:0] $end
$upscope $end
$scope task test_write $end
$var reg 8 8 instr_byte [7:0] $end
$var reg 8 9 data_byte [7:0] $end
$upscope $end
$scope task test_read $end
$var reg 8 : instr_byte [7:0] $end
$upscope $end
$upscope $end
$enddefinitions $end
#0
$dumpvars
0!
0"
0#
b0 $
b0 %
1&
0'
b0 (
b0 )
b0 *
0+
0,
0-
b0 .
b0 /
b0 0
b0 1
b0 2
b0 3
b0 4
05
b0 6
bx 7
bx 8
bx 9
bx :
$end
#5000
1!
1+
#10000
0!
0+
#15000
1!
1+
#20000
0!
1"
0+
1,
#25000
1!
1+
#30000
0!
0+
#35000
1!
1+
#40000
0!
1#
b10010011 $
0+
1-
b10010011 .
b1 1
b10010011 7
b10010011 8
b10111110 9
#45000
1!
0&
1'
b10011 (
1+
b1 0
b0 1
b10010011 2
15
b10011 6
#50000
0!
0#
0+
0-
b1 1
#55000
1!
b10010011 *
1+
b10010011 3
#60000
0!
0+
#65000
1!
1+
#70000
0!
1#
b10111110 $
0+
1-
b10111110 .
b0 1
b10111110 7
#75000
1!
b10111110 *
1+
b0 0
b1 1
b10111110 3
#80000
0!
0#
0+
0-
b0 1
#85000
1!
1+
#90000
0!
0+
#95000
1!
1+
#100000
0!
0+
#105000
1!
1+
#110000
0!
0+
#115000
1!
1+
#120000
0!
0+
#125000
1!
1+
#130000
0!
0+
#135000
1!
1+
#140000
0!
0+
#145000
1!
1+
#150000
0!
0+
#155000
1!
1+
#160000
0!
1#
b11010 $
b11001100 )
0+
1-
b11010 .
b11001100 /
b1 1
b11010 7
b11010 :
#165000
1!
1&
0'
b11010 (
1+
b1 0
b0 1
b11010 2
05
b11010 6
#170000
0!
0#
0+
0-
b1 1
#175000
1!
b11001100 %
1+
b11001100 4
#180000
0!
0+
#185000
1!
1+
#190000
0!
1#
b0 $
0+
1-
b0 .
b0 1
b0 7
#195000
1!
1+
b0 0
b1 1
#200000
0!
0#
0+
0-
b0 1
